﻿
DisplayName "Medal Queen's Castle"



EVENT   1
 PAGE   1
  0()



EVENT   2
 PAGE   1
  0()



EVENT   3
 PAGE   1
  0()



EVENT   4
 PAGE   1
  0()



EVENT   5
 PAGE   1
  0()



EVENT   6
 PAGE   1
  0()



EVENT   7
 PAGE   1
  0()



EVENT   8
 PAGE   1
  ShowMessageFace("slime_fc1",0,0,2,1)
  ShowMessage("\\n<Slime Girl>Is it dinner time yet? The Queen said we'd have fish tonight! ♪")
  355("actor_label_jump")
  EndEventProcessing()
  DefineLabel("53")
  ShowMessageFace("slime_fc1",0,0,2,2)
  ShowMessage("\\n<Lime>Ooh nice. ♪")
  EndEventProcessing()
  DefineLabel("533")
  ShowMessageFace("grandnoa_fc1",1,0,2,3)
  ShowMessage("\\n<Queen of Grand Noah>I shall return soon. Until then, the fish will have to wait.")
  EndEventProcessing()
  0()
 PAGE   2
  // condition: variable 12 >= 5
  0()



EVENT   9
 PAGE   1
  0()



EVENT   10
 PAGE   1
  0()



EVENT   11
 PAGE   1
  0()



EVENT   12
 PAGE   1
  0()



EVENT   13
 PAGE   1
  0()



EVENT   14
 PAGE   1
  0()



EVENT   15
 PAGE   1
  0()



EVENT   16
 PAGE   1
  0()



EVENT   17
 PAGE   1
  // condition: variable 12 >= 5
  0()



EVENT   18
 PAGE   1
  250(bytes(0x04,0x08,0x6f,0x3a,0x0c,0x52,0x50,0x47,0x3a,0x3a,0x53,0x45,0x08,0x3a,0x0a,0x40,0x6e,0x61,0x6d,0x65,0x49,0x22,0x09,0x4d,0x6f,0x76,0x65,0x06,0x3a,0x06,0x45,0x54,0x3a,0x0b,0x40,0x70,0x69,0x74,0x63,0x68,0x69,0x69,0x3a,0x0c,0x40,0x76,0x6f,0x6c,0x75,0x6d,0x65,0x69,0x55))
  TeleportPlayer(0,2,338,272,0,0)
  0()



EVENT   19
 PAGE   1
  250(bytes(0x04,0x08,0x6f,0x3a,0x0c,0x52,0x50,0x47,0x3a,0x3a,0x53,0x45,0x08,0x3a,0x0a,0x40,0x6e,0x61,0x6d,0x65,0x49,0x22,0x09,0x4d,0x6f,0x76,0x65,0x06,0x3a,0x06,0x45,0x54,0x3a,0x0b,0x40,0x70,0x69,0x74,0x63,0x68,0x69,0x69,0x3a,0x0c,0x40,0x76,0x6f,0x6c,0x75,0x6d,0x65,0x69,0x55))
  TeleportPlayer(0,2,338,272,0,0)
  0()



EVENT   20
 PAGE   1
  250(bytes(0x04,0x08,0x6f,0x3a,0x0c,0x52,0x50,0x47,0x3a,0x3a,0x53,0x45,0x08,0x3a,0x0a,0x40,0x6e,0x61,0x6d,0x65,0x49,0x22,0x09,0x4d,0x6f,0x76,0x65,0x06,0x3a,0x06,0x45,0x54,0x3a,0x0b,0x40,0x70,0x69,0x74,0x63,0x68,0x69,0x69,0x3a,0x0c,0x40,0x76,0x6f,0x6c,0x75,0x6d,0x65,0x69,0x55))
  TeleportPlayer(0,2,338,272,0,0)
  0()



EVENT   21
 PAGE   1
  If(12,"unlock_level < 1")
   ShowMessageFace("",0,0,2,1)
   ShowMessage("The chest is locked.")
   EndEventProcessing()
   0()
  EndIf()
  250(bytes(0x04,0x08,0x6f,0x3a,0x0c,0x52,0x50,0x47,0x3a,0x3a,0x53,0x45,0x08,0x3a,0x0a,0x40,0x6e,0x61,0x6d,0x65,0x49,0x22,0x0a,0x43,0x68,0x65,0x73,0x74,0x06,0x3a,0x06,0x45,0x54,0x3a,0x0b,0x40,0x70,0x69,0x74,0x63,0x68,0x69,0x69,0x3a,0x0c,0x40,0x76,0x6f,0x6c,0x75,0x6d,0x65,0x69,0x55))
  205(0,bytes(0x04,0x08,0x6f,0x3a,0x13,0x52,0x50,0x47,0x3a,0x3a,0x4d,0x6f,0x76,0x65,0x52,0x6f,0x75,0x74,0x65,0x09,0x3a,0x0c,0x40,0x72,0x65,0x70,0x65,0x61,0x74,0x46,0x3a,0x0f,0x40,0x73,0x6b,0x69,0x70,0x70,0x61,0x62,0x6c,0x65,0x46,0x3a,0x0a,0x40,0x77,0x61,0x69,0x74,0x54,0x3a,0x0a,0x40,0x6c,0x69,0x73,0x74,0x5b,0x0b,0x6f,0x3a,0x15,0x52,0x50,0x47,0x3a,0x3a,0x4d,0x6f,0x76,0x65,0x43,0x6f,0x6d,0x6d,0x61,0x6e,0x64,0x07,0x3a,0x0a,0x40,0x63,0x6f,0x64,0x65,0x69,0x29,0x3a,0x10,0x40,0x70,0x61,0x72,0x61,0x6d,0x65,0x74,0x65,0x72,0x73,0x5b,0x00,0x6f,0x3b,0x0a,0x07,0x3b,0x0b,0x69,0x16,0x3b,0x0c,0x5b,0x00,0x6f,0x3b,0x0a,0x07,0x3b,0x0b,0x69,0x14,0x3b,0x0c,0x5b,0x06,0x69,0x08,0x6f,0x3b,0x0a,0x07,0x3b,0x0b,0x69,0x17,0x3b,0x0c,0x5b,0x00,0x6f,0x3b,0x0a,0x07,0x3b,0x0b,0x69,0x14,0x3b,0x0c,0x5b,0x06,0x69,0x08,0x6f,0x3b,0x0a,0x07,0x3b,0x0b,0x69,0x00,0x3b,0x0c,0x5b,0x00))
  ChangeSelfSwitch("A",0)
  ChangeInventoryArmor(1393,0,0,1)
  0()
 PAGE   2
  // condition: self-switch A is ON
  0()



EVENT   22
 PAGE   1
  If(12,"unlock_level < 2")
   ShowMessageFace("",0,0,2,1)
   ShowMessage("The chest is locked.")
   EndEventProcessing()
   0()
  EndIf()
  250(bytes(0x04,0x08,0x6f,0x3a,0x0c,0x52,0x50,0x47,0x3a,0x3a,0x53,0x45,0x08,0x3a,0x0a,0x40,0x6e,0x61,0x6d,0x65,0x49,0x22,0x0a,0x43,0x68,0x65,0x73,0x74,0x06,0x3a,0x06,0x45,0x54,0x3a,0x0b,0x40,0x70,0x69,0x74,0x63,0x68,0x69,0x69,0x3a,0x0c,0x40,0x76,0x6f,0x6c,0x75,0x6d,0x65,0x69,0x55))
  205(0,bytes(0x04,0x08,0x6f,0x3a,0x13,0x52,0x50,0x47,0x3a,0x3a,0x4d,0x6f,0x76,0x65,0x52,0x6f,0x75,0x74,0x65,0x09,0x3a,0x0c,0x40,0x72,0x65,0x70,0x65,0x61,0x74,0x46,0x3a,0x0f,0x40,0x73,0x6b,0x69,0x70,0x70,0x61,0x62,0x6c,0x65,0x46,0x3a,0x0a,0x40,0x77,0x61,0x69,0x74,0x54,0x3a,0x0a,0x40,0x6c,0x69,0x73,0x74,0x5b,0x0b,0x6f,0x3a,0x15,0x52,0x50,0x47,0x3a,0x3a,0x4d,0x6f,0x76,0x65,0x43,0x6f,0x6d,0x6d,0x61,0x6e,0x64,0x07,0x3a,0x0a,0x40,0x63,0x6f,0x64,0x65,0x69,0x29,0x3a,0x10,0x40,0x70,0x61,0x72,0x61,0x6d,0x65,0x74,0x65,0x72,0x73,0x5b,0x00,0x6f,0x3b,0x0a,0x07,0x3b,0x0b,0x69,0x16,0x3b,0x0c,0x5b,0x00,0x6f,0x3b,0x0a,0x07,0x3b,0x0b,0x69,0x14,0x3b,0x0c,0x5b,0x06,0x69,0x08,0x6f,0x3b,0x0a,0x07,0x3b,0x0b,0x69,0x17,0x3b,0x0c,0x5b,0x00,0x6f,0x3b,0x0a,0x07,0x3b,0x0b,0x69,0x14,0x3b,0x0c,0x5b,0x06,0x69,0x08,0x6f,0x3b,0x0a,0x07,0x3b,0x0b,0x69,0x00,0x3b,0x0c,0x5b,0x00))
  ChangeSelfSwitch("A",0)
  ChangeInventoryArmor(1280,0,0,1,false)
  0()
 PAGE   2
  // condition: self-switch A is ON
  0()



EVENT   23
 PAGE   1
  ShowMessageFace("slime_fc1",0,0,2,1)
  ShowMessage("\\n<Slime Girl>Purupuru Puru! I'm a small medal hunter too! ♪")
  355("actor_label_jump")
  EndEventProcessing()
  DefineLabel("53")
  ShowMessageFace("slime_fc1",0,0,2,2)
  ShowMessage("\\n<Lime>Yay, me too! ♪")
  EndEventProcessing()
  355("actor_label_jump")
  EndEventProcessing()
  DefineLabel("533")
  ShowMessageFace("grandnoa_fc1",1,0,2,3)
  ShowMessage("\\n<Queen of Grand Noah>Huhu, best of luck to you.")
  EndEventProcessing()
  0()
 PAGE   2
  // condition: variable 12 >= 5
  0()



EVENT   24
 PAGE   1
  // condition: variable 12 >= 5
  0()



EVENT   25
 PAGE   1
  ShowMessageFace("slime_fc1",0,0,2,1)
  ShowMessage("\\n<Slime Girl>Welcome to the Medal Queen's Castle! You can exchange your small medals for items here!")
  ShowMessageFace("slime_fc1",0,0,2,2)
  ShowMessage("\\n<Slime Girl>Ehh? You think this place is too small to be called a castle? Well aren't you Mr. Fancy Pants? I'm sure YOUR castle is SOOOOO much bigger!")
  0()
 PAGE   2
  // condition: variable 12 >= 5
  0()



EVENT   26
 PAGE   1
  ShowMessageFace("",0,0,2,1)
  ShowMessage("\\n<Dapper Gentleman>I was fairly doubtful that I could really trade in small medals for a title of nobility, but I actually received one!")
  ShowMessageFace("",0,0,2,2)
  ShowMessage("\\n<Dapper Gentleman>There's actually a King tier on the exchange list. Now I'm wondering what THAT entitles you to...")
  355("actor_label_jump")
  EndEventProcessing()
  DefineLabel("82")
  ShowMessageFace("suzume_fc1",0,0,2,3)
  ShowMessage("\\n<Chirp>I want to be the king! Then the other harpies...")
  EndEventProcessing()
  DefineLabel("540")
  ShowMessageFace("amira_fc1",0,0,2,4)
  ShowMessage("\\n<Amira>I want to be king too...")
  EndEventProcessing()
  0()



EVENT   27
 PAGE   1
  355("gain_medal(12)")
  PictureDisplay(5,"80_grandnoa_st11",0,0,0,0,100,100,0,0)
  PictureMove(5,null,0,0,0,0,100,100,255,0,30,true)
  ShowMessageFace("grandnoa_fc1",3,0,2,1)
  ShowMessage("\\n<Medal Queen>I am the mysterious Medal Queen. I can award you with some valuable items in exchange for your small medals.")
  RunCommonEvent(8)
  0()
 PAGE   2
  // condition: party contains actor #533
  0()
 PAGE   3
  // condition: variable 12 >= 5
  0()



EVENT   28
 PAGE   1
  ShowMessageFace("",0,0,2,1)
  ShowMessage("\\n<Traveling Warrior>Do I simply take the title of nobility and live a life of luxury? Or should I save up a few more medals and get a mighty weapon...")
  ShowMessageFace("",0,0,2,2)
  ShowMessage("\\n<Traveling Warrior>Gah, I can't decide. This is the hardest choice of my life!")
  355("actor_label_jump")
  EndEventProcessing()
  DefineLabel("76")
  ShowMessageFace("syuree_fc1",0,0,2,3)
  ShowMessage("\\n<Sully>You can eat lots of rich food when you're a noble. Can you eat a weapon? Nope!")
  EndEventProcessing()
  DefineLabel("81")
  ShowMessageFace("mitubati_fc1",0,0,2,4)
  ShowMessage("\\n<Honey>A peaceful and stable life shouldn't be underestimated...")
  EndEventProcessing()
  0()



EVENT   29
 PAGE   1
  ShowMessageFace("",0,0,2,1)
  ShowMessage("\\n<Well-Dressed Woman>Just look at all the treasures she's got here! Who in the world is this Medal Queen?")
  355("actor_label_jump")
  EndEventProcessing()
  DefineLabel("533")
  ShowMessageFace("grandnoa_fc1",0,0,2,2)
  ShowMessage("\\n<Queen of Grand Noah>I am the mysterious Medal Queen. No more, no less.")
  EndEventProcessing()
  0()



EVENT   30
 PAGE   1
  ShowMessageFace("",0,0,2,1)
  ShowMessage("\\n<Guard>You may meet with the Medal Queen. Please, go right ahead.")
  0()



EVENT   31
 PAGE   1
  ShowMessageFace("",0,0,2,1)
  ShowMessage("\\n<Guard>The Medal Queen is very friendly to everyone, but show her the respect she deserves.")
  0()



EVENT   32
 PAGE   1
  ShowMessageFace("slime_fc1",0,0,2,1)
  ShowMessage("\\n<Slime Girl>We love the Queen! She actually plays with us! ♪")
  355("actor_label_jump")
  EndEventProcessing()
  DefineLabel("53")
  ShowMessageFace("slime_fc1",0,0,2,2)
  ShowMessage("\\n<Lime>I want to play toooo! ♪")
  EndEventProcessing()
  DefineLabel("533")
  ShowMessageFace("grandnoa_fc1",1,0,2,3)
  ShowMessage("\\n<Queen of Grand Noah>Fufu, we'll play again soon, I promise.")
  EndEventProcessing()
  0()
 PAGE   2
  // condition: variable 12 >= 5
  0()



EVENT   33
 PAGE   1
  // condition: variable 12 >= 5
  0()



EVENT   34
 PAGE   1
  // condition: variable 12 >= 5
  0()



EVENT   35
 PAGE   1
  // condition: variable 12 >= 5
  0()



EVENT   36
 PAGE   1
  // condition: variable 12 >= 5
  0()



EVENT   37
 PAGE   1
  // condition: variable 12 >= 5
  ShowMessageFace("slime_fc1",0,0,2,1)
  ShowMessage("\\n<Slime Girl>Fish are so delish! ♪")
  0()



EVENT   38
 PAGE   1
  // condition: variable 12 >= 5
  ShowMessageFace("slime_fc1",0,0,2,1)
  ShowMessage("\\n<Slime Girl>Time to eat! ♪")
  0()



EVENT   39
 PAGE   1
  // condition: variable 12 >= 5
  ShowMessageFace("",0,0,2,1)
  ShowMessage("\\n<Guard>The Queen is currently eating supper. You can find her in the castle's west garden.")
  0()

EVENT   40
 PAGE   1
  // condition: variable 12 >= 5
  ShowMessageFace("slime_fc1",0,0,2,1)
  ShowMessage("\\n<Slime Girl>Purupuru happiness! ♪")
  0()



EVENT   41
 PAGE   1
  // condition: variable 12 >= 5
  355("gain_medal(12)")
  PictureDisplay(5,"80_grandnoa_st11",0,0,0,0,100,100,0,0)
  PictureMove(5,null,0,0,0,0,100,100,255,0,30,true)
  ShowMessageFace("grandnoa_fc1",3,0,2,1)
  ShowMessage("\\n<Medal Queen>Ah, my apologies. We're in the middle of supper. Would you like to exchange medals?")
  RunCommonEvent(8)
  0()
 PAGE   2
  // condition: party contains actor #533
  0()



EVENT   42
 PAGE   1
  // condition: variable 12 >= 5
  ShowMessageFace("slime_fc1",0,0,2,1)
  ShowMessage("\\n<Slime Girl>*Munch* *munch* *munch*")
  0()


