﻿
DisplayName "Undersea Temple (North) B1F"



EVENT   1
 PAGE   1
  0()



EVENT   2
 PAGE   1
  0()



EVENT   3
 PAGE   1
  0()



EVENT   4
 PAGE   1
  0()



EVENT   5
 PAGE   1
  0()



EVENT   6
 PAGE   1
  0()



EVENT   7
 PAGE   1
  0()



EVENT   8
 PAGE   1
  0()



EVENT   9
 PAGE   1
  0()



EVENT   10
 PAGE   1
  0()



EVENT   11
 PAGE   1
  0()



EVENT   12
 PAGE   1
  0()



EVENT   13
 PAGE   1
  0()



EVENT   14
 PAGE   1
  0()



EVENT   15
 PAGE   1
  0()



EVENT   16
 PAGE   1
  0()



EVENT   17
 PAGE   1
  0()



EVENT   18
 PAGE   1
  0()



EVENT   19
 PAGE   1
  0()



EVENT   20
 PAGE   1
  0()



EVENT   21
 PAGE   1
  0()



EVENT   22
 PAGE   1
  0()



EVENT   23
 PAGE   1
  0()



EVENT   24
 PAGE   1
  0()



EVENT   25
 PAGE   1
  0()



EVENT   26
 PAGE   1
  0()



EVENT   27
 PAGE   1
  0()



EVENT   28
 PAGE   1
  0()



EVENT   29
 PAGE   1
  0()



EVENT   30
 PAGE   1
  0()



EVENT   31
 PAGE   1
  0()



EVENT   32
 PAGE   1
  0()



EVENT   33
 PAGE   1
  0()



EVENT   34
 PAGE   1
  0()



EVENT   35
 PAGE   1
  0()



EVENT   36
 PAGE   1
  0()



EVENT   37
 PAGE   1
  0()



EVENT   38
 PAGE   1
  0()



EVENT   39
 PAGE   1
  0()



EVENT   40
 PAGE   1
  0()



EVENT   41
 PAGE   1
  0()



EVENT   42
 PAGE   1
  0()



EVENT   43
 PAGE   1
  0()



EVENT   44
 PAGE   1
  0()



EVENT   45
 PAGE   1
  0()



EVENT   46
 PAGE   1
  0()



EVENT   47
 PAGE   1
  0()



EVENT   48
 PAGE   1
  0()



EVENT   49
 PAGE   1
  0()



EVENT   50
 PAGE   1
  0()



EVENT   51
 PAGE   1
  0()



EVENT   52
 PAGE   1
  0()



EVENT   53
 PAGE   1
  0()



EVENT   54
 PAGE   1
  0()



EVENT   55
 PAGE   1
  0()



EVENT   56
 PAGE   1
  0()



EVENT   57
 PAGE   1
  0()



EVENT   58
 PAGE   1
  0()



EVENT   59
 PAGE   1
  0()



EVENT   60
 PAGE   1
  0()



EVENT   61
 PAGE   1
  0()



EVENT   62
 PAGE   1
  0()



EVENT   63
 PAGE   1
  0()



EVENT   64
 PAGE   1
  0()



EVENT   65
 PAGE   1
  0()



EVENT   66
 PAGE   1
  0()



EVENT   67
 PAGE   1
  0()



EVENT   68
 PAGE   1
  0()



EVENT   69
 PAGE   1
  0()



EVENT   70
 PAGE   1
  0()



EVENT   71
 PAGE   1
  0()



EVENT   72
 PAGE   1
  0()



EVENT   73
 PAGE   1
  0()



EVENT   74
 PAGE   1
  0()



EVENT   75
 PAGE   1
  0()



EVENT   76
 PAGE   1
  0()



EVENT   77
 PAGE   1
  0()



EVENT   78
 PAGE   1
  0()



EVENT   79
 PAGE   1
  0()



EVENT   80
 PAGE   1
  0()



EVENT   81
 PAGE   1
  0()



EVENT   82
 PAGE   1
  0()



EVENT   83
 PAGE   1
  0()



EVENT   84
 PAGE   1
  0()



EVENT   85
 PAGE   1
  0()



EVENT   86
 PAGE   1
  0()



EVENT   87
 PAGE   1
  0()



EVENT   88
 PAGE   1
  0()



EVENT   89
 PAGE   1
  0()



EVENT   90
 PAGE   1
  0()



EVENT   91
 PAGE   1
  0()



EVENT   92
 PAGE   1
  0()



EVENT   93
 PAGE   1
  0()



EVENT   94
 PAGE   1
  0()



EVENT   95
 PAGE   1
  0()



EVENT   96
 PAGE   1
  0()



EVENT   97
 PAGE   1
  0()



EVENT   98
 PAGE   1
  0()



EVENT   99
 PAGE   1
  0()



EVENT   100
 PAGE   1
  0()



EVENT   101
 PAGE   1
  0()



EVENT   102
 PAGE   1
  281(1)
  250(bytes(0x04,0x08,0x6f,0x3a,0x0c,0x52,0x50,0x47,0x3a,0x3a,0x53,0x45,0x08,0x3a,0x0a,0x40,0x6e,0x61,0x6d,0x65,0x49,0x22,0x09,0x4d,0x6f,0x76,0x65,0x06,0x3a,0x06,0x45,0x54,0x3a,0x0b,0x40,0x70,0x69,0x74,0x63,0x68,0x69,0x69,0x3a,0x0c,0x40,0x76,0x6f,0x6c,0x75,0x6d,0x65,0x69,0x55))
  TeleportPlayer(0,148,33,34,0,0)
  0()



EVENT   103
 PAGE   1
  281(1)
  250(bytes(0x04,0x08,0x6f,0x3a,0x0c,0x52,0x50,0x47,0x3a,0x3a,0x53,0x45,0x08,0x3a,0x0a,0x40,0x6e,0x61,0x6d,0x65,0x49,0x22,0x09,0x4d,0x6f,0x76,0x65,0x06,0x3a,0x06,0x45,0x54,0x3a,0x0b,0x40,0x70,0x69,0x74,0x63,0x68,0x69,0x69,0x3a,0x0c,0x40,0x76,0x6f,0x6c,0x75,0x6d,0x65,0x69,0x55))
  TeleportPlayer(0,148,33,34,0,0)
  0()



EVENT   104
 PAGE   1
  281(1)
  250(bytes(0x04,0x08,0x6f,0x3a,0x0c,0x52,0x50,0x47,0x3a,0x3a,0x53,0x45,0x08,0x3a,0x0a,0x40,0x6e,0x61,0x6d,0x65,0x49,0x22,0x09,0x4d,0x6f,0x76,0x65,0x06,0x3a,0x06,0x45,0x54,0x3a,0x0b,0x40,0x70,0x69,0x74,0x63,0x68,0x69,0x69,0x3a,0x0c,0x40,0x76,0x6f,0x6c,0x75,0x6d,0x65,0x69,0x55))
  TeleportPlayer(0,148,33,34,0,0)
  0()



EVENT   105
 PAGE   1
  250(bytes(0x04,0x08,0x6f,0x3a,0x0c,0x52,0x50,0x47,0x3a,0x3a,0x53,0x45,0x08,0x3a,0x0a,0x40,0x6e,0x61,0x6d,0x65,0x49,0x22,0x0a,0x43,0x68,0x65,0x73,0x74,0x06,0x3a,0x06,0x45,0x54,0x3a,0x0b,0x40,0x70,0x69,0x74,0x63,0x68,0x69,0x69,0x3a,0x0c,0x40,0x76,0x6f,0x6c,0x75,0x6d,0x65,0x69,0x55))
  205(0,bytes(0x04,0x08,0x6f,0x3a,0x13,0x52,0x50,0x47,0x3a,0x3a,0x4d,0x6f,0x76,0x65,0x52,0x6f,0x75,0x74,0x65,0x09,0x3a,0x0c,0x40,0x72,0x65,0x70,0x65,0x61,0x74,0x46,0x3a,0x0f,0x40,0x73,0x6b,0x69,0x70,0x70,0x61,0x62,0x6c,0x65,0x46,0x3a,0x0a,0x40,0x77,0x61,0x69,0x74,0x54,0x3a,0x0a,0x40,0x6c,0x69,0x73,0x74,0x5b,0x0b,0x6f,0x3a,0x15,0x52,0x50,0x47,0x3a,0x3a,0x4d,0x6f,0x76,0x65,0x43,0x6f,0x6d,0x6d,0x61,0x6e,0x64,0x07,0x3a,0x0a,0x40,0x63,0x6f,0x64,0x65,0x69,0x29,0x3a,0x10,0x40,0x70,0x61,0x72,0x61,0x6d,0x65,0x74,0x65,0x72,0x73,0x5b,0x00,0x6f,0x3b,0x0a,0x07,0x3b,0x0b,0x69,0x16,0x3b,0x0c,0x5b,0x00,0x6f,0x3b,0x0a,0x07,0x3b,0x0b,0x69,0x14,0x3b,0x0c,0x5b,0x06,0x69,0x08,0x6f,0x3b,0x0a,0x07,0x3b,0x0b,0x69,0x17,0x3b,0x0c,0x5b,0x00,0x6f,0x3b,0x0a,0x07,0x3b,0x0b,0x69,0x14,0x3b,0x0c,0x5b,0x06,0x69,0x08,0x6f,0x3b,0x0a,0x07,0x3b,0x0b,0x69,0x00,0x3b,0x0c,0x5b,0x00))
  ChangeSelfSwitch("A",0)
  ChangeInventoryArmor(1557,0,0,1)
  0()
 PAGE   2
  // condition: self-switch A is ON
  0()



EVENT   106
 PAGE   1
  250(bytes(0x04,0x08,0x6f,0x3a,0x0c,0x52,0x50,0x47,0x3a,0x3a,0x53,0x45,0x08,0x3a,0x0a,0x40,0x6e,0x61,0x6d,0x65,0x49,0x22,0x0a,0x43,0x68,0x65,0x73,0x74,0x06,0x3a,0x06,0x45,0x54,0x3a,0x0b,0x40,0x70,0x69,0x74,0x63,0x68,0x69,0x69,0x3a,0x0c,0x40,0x76,0x6f,0x6c,0x75,0x6d,0x65,0x69,0x55))
  205(0,bytes(0x04,0x08,0x6f,0x3a,0x13,0x52,0x50,0x47,0x3a,0x3a,0x4d,0x6f,0x76,0x65,0x52,0x6f,0x75,0x74,0x65,0x09,0x3a,0x0c,0x40,0x72,0x65,0x70,0x65,0x61,0x74,0x46,0x3a,0x0f,0x40,0x73,0x6b,0x69,0x70,0x70,0x61,0x62,0x6c,0x65,0x46,0x3a,0x0a,0x40,0x77,0x61,0x69,0x74,0x54,0x3a,0x0a,0x40,0x6c,0x69,0x73,0x74,0x5b,0x0b,0x6f,0x3a,0x15,0x52,0x50,0x47,0x3a,0x3a,0x4d,0x6f,0x76,0x65,0x43,0x6f,0x6d,0x6d,0x61,0x6e,0x64,0x07,0x3a,0x0a,0x40,0x63,0x6f,0x64,0x65,0x69,0x29,0x3a,0x10,0x40,0x70,0x61,0x72,0x61,0x6d,0x65,0x74,0x65,0x72,0x73,0x5b,0x00,0x6f,0x3b,0x0a,0x07,0x3b,0x0b,0x69,0x16,0x3b,0x0c,0x5b,0x00,0x6f,0x3b,0x0a,0x07,0x3b,0x0b,0x69,0x14,0x3b,0x0c,0x5b,0x06,0x69,0x08,0x6f,0x3b,0x0a,0x07,0x3b,0x0b,0x69,0x17,0x3b,0x0c,0x5b,0x00,0x6f,0x3b,0x0a,0x07,0x3b,0x0b,0x69,0x14,0x3b,0x0c,0x5b,0x06,0x69,0x08,0x6f,0x3b,0x0a,0x07,0x3b,0x0b,0x69,0x00,0x3b,0x0c,0x5b,0x00))
  ChangeSelfSwitch("A",0)
  ChangeInventory_Item(57,0,0,1)
  0()
 PAGE   2
  // condition: self-switch A is ON
  0()



EVENT   107
 PAGE   1
  If(1,1068,0,2,2)
   241(bytes(0x04,0x08,0x6f,0x3a,0x0d,0x52,0x50,0x47,0x3a,0x3a,0x42,0x47,0x4d,0x08,0x3a,0x0a,0x40,0x6e,0x61,0x6d,0x65,0x49,0x22,0x0a,0x62,0x6f,0x73,0x73,0x30,0x06,0x3a,0x06,0x45,0x54,0x3a,0x0c,0x40,0x76,0x6f,0x6c,0x75,0x6d,0x65,0x69,0x69,0x3a,0x0b,0x40,0x70,0x69,0x74,0x63,0x68,0x69,0x69))
   PictureDisplay(5,"80_poseidones_st01",0,0,0,0,100,100,0,0)
   PictureMove(5,null,0,0,0,0,100,100,255,0,60,true)
   ShowMessageFace("poseidones_fc1",0,0,2,1)
   ShowMessage("\\n<Poseidoness>I am Queen Poseidoness, lord of this undersea temple and warden of the northern half of the seas.")
   If(0,6,0)
    ShowMessageFace("sonia_fc2",2,0,2,2)
    ShowMessage("\\n<Sonya>She's so big and looks strong...\nWe didn't come here to fight, so we better stay on her good side.")
    0()
   Else()
    ShowMessageFace("ruka_fc1",0,0,2,3)
    ShowMessage("\\n<Luka>She's so big and looks strong...\nWe didn't come here to fight, so we better stay on her good side.")
    0()
   EndIf()
   ShowMessageFace("poseidones_fc1",0,0,2,4)
   ShowMessage("\\n<Poseidoness>For what purpose have you come to my temple?\nAnswer me.")
   If(4,203,0)
    ShowMessageFace("tatunoko_k_fc1",2,0,2,5)
    ShowMessage("\\n<Tatsuko>I'm too scared to lie to her...")
    0()
   EndIf()
   If(1,1068,0,0,0)
    If(1,1016,0,3,1)
     ShowMessageFace("",0,0,2,6)
     ShowMessage("We came here to restore Kraken, but now that I think about it, we've heard there's treasure here too.")
     0()
    Else()
     ShowMessageFace("",0,0,2,7)
     ShowMessage("Honestly, we have no reason to be here.\nShould we just tell her that and get the hell out of here?")
     0()
    EndIf()
    0()
   Else()
    If(1,1016,0,3,1)
     ShowMessageFace("",0,0,2,8)
     ShowMessage("We came here to restore Kraken and for the Silver Orb.\nHow should we approach this?")
     0()
    Else()
     ShowMessageFace("",0,0,2,9)
     ShowMessage("We came here to get the Silver Orb, but we could also try to confuse her by saying something weird.")
     0()
    EndIf()
    0()
   EndIf()
   ShowChoices(strings("We're here because of a talking squid","We're here for the Silver Orb","We're here for no reason"),3)
   IfPlayerPicksChoice(0,null)
    ShowMessageFace("poseidones_fc1",0,0,2,10)
    ShowMessage("\\n<Poseidoness>What kind of nonsense reason is that?\nMocking me in my own temple is a sin!")
    JumpToLabel("戦闘")
    0()
   IfPlayerPicksChoice(1,null)
    ShowMessageFace("poseidones_fc1",0,0,2,11)
    ShowMessage("\\n<Poseidoness>You're here to steal the orb!?\nRevealing such treachery in my presence is a sin!")
    JumpToLabel("戦闘")
    0()
   IfPlayerPicksChoice(2,null)
    ShowMessageFace("poseidones_fc1",0,0,2,12)
    ShowMessage("\\n<Poseidoness>...Then leave.\nI must keep watch over the northern seas.")
    PictureClear(5)
    241(bytes(0x04,0x08,0x6f,0x3a,0x0d,0x52,0x50,0x47,0x3a,0x3a,0x42,0x47,0x4d,0x08,0x3a,0x0a,0x40,0x6e,0x61,0x6d,0x65,0x49,0x22,0x10,0x64,0x75,0x6e,0x67,0x65,0x6f,0x6e,0x5f,0x75,0x6d,0x69,0x06,0x3a,0x06,0x45,0x54,0x3a,0x0c,0x40,0x76,0x6f,0x6c,0x75,0x6d,0x65,0x69,0x69,0x3a,0x0b,0x40,0x70,0x69,0x74,0x63,0x68,0x69,0x69))
    EndEventProcessing()
    0()
   404()
   DefineLabel("戦闘")
   ShowMessageFace("poseidones_fc1",0,0,2,13)
   ShowMessage("\\n<Poseidoness>I sentence you all to death for your transgression! Accept your punishment!")
   If(0,4,0)
    ShowMessageFace("alice_fc5",6,0,2,14)
    ShowMessage("\\n<Alice>Hold on, Poseidoness!\nHear us out!")
    0()
   EndIf()
   If(0,5,0)
    ShowMessageFace("iriasu_fc5",0,0,2,15)
    ShowMessage("\\n<Ilias>Listen to me, you stupid octopus! I'll teach you which one of us hands down judgement!")
    0()
   EndIf()
   ShowMessageFace("poseidones_fc1",0,0,2,16)
   ShowMessage("\\n<Poseidoness>If you believe your sentence is unjust, then prove your strength! That's the law of the sea!")
   If(4,226,0)
    ShowMessageFace("sirohebisama_fc1",0,0,2,17)
    ShowMessage("\\n<Shirohebi>That's a poor foundation for a legal framework.\nSuch complete irrationality is unacceptable.")
    0()
   EndIf()
   ShowMessageFace("ruka_fc1",0,0,2,18)
   ShowMessage("\\n<Luka>It looks like there's no point in arguing now!\nGet ready!")
   If(4,280,0)
    ShowMessageFace("poseidones_fc1",1,0,2,19)
    ShowMessage("\\n<Poseidoness'>Looking at me from this perspective, my body really is a smorgasbord. Octopus tentacles, crab meat, and even caviar if spawning...")
    ShowMessageFace("poseidones_fc1",2,0,2,20)
    ShowMessage("\\n<Poseidoness>Do you plan to make a seafood platter out of me?!\nAnyone who could consider such a terrible act shouldn't be allowed to live!")
    0()
   EndIf()
   PictureClear(5)
   SetBattleBGM(bytes(0x04,0x08,0x6f,0x3a,0x0d,0x52,0x50,0x47,0x3a,0x3a,0x42,0x47,0x4d,0x08,0x3a,0x0a,0x40,0x6e,0x61,0x6d,0x65,0x49,0x22,0x0a,0x62,0x6f,0x73,0x73,0x31,0x06,0x3a,0x06,0x45,0x54,0x3a,0x0c,0x40,0x76,0x6f,0x6c,0x75,0x6d,0x65,0x69,0x69,0x3a,0x0b,0x40,0x70,0x69,0x74,0x63,0x68,0x69,0x69))
   ChangeSwitch(22,22,0)
   Battle(0,735,false,false)
   ChangeSwitch(22,22,1)
   SetBattleBGM(bytes(0x04,0x08,0x6f,0x3a,0x0d,0x52,0x50,0x47,0x3a,0x3a,0x42,0x47,0x4d,0x08,0x3a,0x0a,0x40,0x6e,0x61,0x6d,0x65,0x49,0x22,0x0b,0x62,0x61,0x74,0x74,0x6c,0x65,0x06,0x3a,0x06,0x45,0x54,0x3a,0x0c,0x40,0x76,0x6f,0x6c,0x75,0x6d,0x65,0x69,0x69,0x3a,0x0b,0x40,0x70,0x69,0x74,0x63,0x68,0x69,0x69))
   ChangeVariable(1068,1068,0,0,3)
   241(bytes(0x04,0x08,0x6f,0x3a,0x0d,0x52,0x50,0x47,0x3a,0x3a,0x42,0x47,0x4d,0x08,0x3a,0x0a,0x40,0x6e,0x61,0x6d,0x65,0x49,0x22,0x14,0x73,0x63,0x65,0x6e,0x65,0x5f,0x65,0x70,0x69,0x6c,0x6f,0x67,0x75,0x65,0x32,0x06,0x3a,0x06,0x45,0x54,0x3a,0x0c,0x40,0x76,0x6f,0x6c,0x75,0x6d,0x65,0x69,0x69,0x3a,0x0b,0x40,0x70,0x69,0x74,0x63,0x68,0x69,0x69))
   PictureDisplay(5,"80_poseidones_st03",0,0,0,0,100,100,0,0)
   PictureMove(5,null,0,0,0,0,100,100,255,0,30,true)
   ShowMessageFace("poseidones_fc1",2,0,2,21)
   ShowMessage("\\n<Poseidoness>Boil me, grill me, however you like.\nFortunately for you, every part of my body is delicious.")
   If(0,4,0)
    ShowMessageFace("alice_fc6",1,0,2,22)
    ShowMessage("\\n<Alice>Save that for later! First of all, we just want to talk!")
    0()
   EndIf()
   If(0,5,0)
    ShowMessageFace("iriasu_fc5",0,0,2,23)
    ShowMessage("\\n<Ilias>Save that for later! First of all, we just want to speak to you!")
    0()
   EndIf()
   If(0,6,0)
    ShowMessageFace("sonia_fc3",2,0,2,24)
    ShowMessage("\\n<Sonya>...Wait, you plan to eat her after!?")
    0()
   Else()
    ShowMessageFace("ruka_fc1",0,0,2,25)
    ShowMessage("\\n<Luka>You plan to eat her after!?")
    0()
   EndIf()
   If(1,1016,0,3,1)
    ShowMessageFace("kraken_fc2",0,0,2,26)
    ShowMessage("\\n<Kraken>I need to talk to you, Poseidoness.\nYou recognize who I am, right?")
    ShowMessageFace("poseidones_fc1",2,0,2,27)
    ShowMessage("\\n<Poseidoness>The squid spoke!?")
    ShowMessageFace("kraken_fc2",0,0,2,28)
    ShowMessage("\\n<Kraken>Guess not...\nIt's me, Kraken.")
    ShowMessageFace("poseidones_fc1",2,0,2,29)
    ShowMessage("\\n<Poseidoness>My sworn friend! What happened to you?")
    ShowMessageFace("",0,0,2,30)
    ShowMessage("Luka explains the situation...")
    PictureDisplay(5,"80_poseidones_st01",0,0,0,0,100,100,255,0)
    ShowMessageFace("poseidones_fc1",0,0,2,31)
    ShowMessage("\\n<Poseidoness>I see. She sounds like a fearsome succubus.\nShe must have tremendous power to drain your energy and leave you like that.")
    ShowMessageFace("poseidones_fc1",0,0,2,32)
    ShowMessage("\\n<Poseidoness>To get straight to the point, I don't have the power to help you. I'm a warrior, not someone who has any talent in healing others.")
    ShowMessageFace("poseidones_fc1",0,0,2,33)
    ShowMessage("\\n<Poseidoness>The Queen Mermaid should be able to, though. There's no one more qualified at healing than one who embraces the power of water.")
    If(0,4,0)
     ShowMessageFace("alice_fc5",0,0,2,34)
     ShowMessage("\\n<Alice>The Queen Mermaid? That makes sense.\nShe probably does have the power to turn the squid back to normal.")
     0()
    EndIf()
    If(0,5,0)
     ShowMessageFace("iriasu_fc4",2,0,2,35)
     ShowMessage("\\n<Ilias>The Queen Mermaid...?\nShe may be qualified, but I hesitate to rely on monsters.")
     0()
    EndIf()
    If(1,1071,0,0,0)
     If(0,4,0)
      ShowMessageFace("alice_fc5",0,0,2,36)
      ShowMessage("\\n<Alice>The problem is that we don't know where she is right now. She was driven away by Alipheese the 17th and went into hiding.")
      0()
     EndIf()
     If(0,5,0)
      ShowMessageFace("iriasu_fc4",2,0,2,37)
      ShowMessage("\\n<Ilias>We also don't know where she is right now. She was supposedly driven into hiding somewhere by Alipheese the 17th.")
      0()
     EndIf()
     ShowMessageFace("poseidones_fc1",0,0,2,38)
     ShowMessage("\\n<Poseidoness>I don't know where she is either. Someone like her is able to completely conceal her own presence.")
     If(4,14,0)
      ShowMessageFace("undine_fc1",2,0,2,39)
      ShowMessage("\\n<Undine>This is just one hurdle after another...")
      0()
     EndIf()
     If(0,4,0)
      ShowMessageFace("alice_fc5",0,0,2,40)
      ShowMessage("\\n<Alice>Sorry, but we don't have time to waste searching for the Queen Mermaid. We should save it for later.")
      0()
     EndIf()
     If(0,5,0)
      ShowMessageFace("iriasu_fc4",2,0,2,41)
      ShowMessage("\\n<Ilias>We aren't in a position to go looking for her either. We will have to postpone a search.")
      0()
     EndIf()
     ShowMessageFace("kraken_fc2",0,0,2,42)
     ShowMessage("\\n<Kraken>I understand. I'll deal with being in this form awhile longer. I know you've all been given a mission to accomplish.")
     If(0,6,0)
      ShowMessageFace("sonia_fc1",0,0,2,43)
      ShowMessage("\\n<Sonya>We might learn news about the Queen Mermaid on our adventure. It's possible that we'll even run into her by chance...")
      0()
     Else()
      ShowMessageFace("ruka_fc1",0,0,2,44)
      ShowMessage("\\n<Luka>We might learn news about the Queen Mermaid on our adventure. It's possible that we'll even run into her by chance...")
      0()
     EndIf()
     0()
    EndIf()
    If(1,1071,0,1,0)
     ShowMessageFace("",0,0,2,45)
     ShowMessage("We'll have to go see the Queen Mermaid and somehow persuade her to help.")
     0()
    EndIf()
    If(1,1071,0,2,1)
     ShowMessageFace("",0,0,2,46)
     ShowMessage("The Queen Mermaid should be at the Waterfall Cave.\nLet's go see her at once.")
     0()
    EndIf()
    ShowMessageFace("poseidones_fc1",0,0,2,47)
    ShowMessage("\\n<Poseidoness>It sounds like that matter is settled for now.\nBy the way, you can take the Silver Orb with you.")
    0()
   Else()
    PictureDisplay(5,"80_poseidones_st01",0,0,0,0,100,100,255,0)
    ShowMessageFace("poseidones_fc1",0,0,2,48)
    ShowMessage("\\n<Poseidoness>I already know what you want to talk about.\nHere, take the Silver Orb with you.")
    0()
   EndIf()
   ShowMessageFace("ruka_fc1",0,0,2,49)
   ShowMessage("\\n<Luka>Whoa, are you sure?")
   ShowMessageFace("poseidones_fc1",0,0,2,50)
   ShowMessage("\\n<Poseidoness>It's your right to take it after defeating me. Besides, I have a feeling you'll need it.")
   250(bytes(0x04,0x08,0x6f,0x3a,0x0c,0x52,0x50,0x47,0x3a,0x3a,0x53,0x45,0x08,0x3a,0x0a,0x40,0x6e,0x61,0x6d,0x65,0x49,0x22,0x0a,0x49,0x74,0x65,0x6d,0x31,0x06,0x3a,0x06,0x45,0x54,0x3a,0x0b,0x40,0x70,0x69,0x74,0x63,0x68,0x69,0x69,0x3a,0x0c,0x40,0x76,0x6f,0x6c,0x75,0x6d,0x65,0x69,0x55))
   ChangeInventory_Item(542,0,0,1)
   355("gain_medal(46)")
   If(1,1016,0,3,1)
    ShowMessageFace("poseidones_fc1",0,0,2,51)
    ShowMessage("\\n<Poseidoness>I apologize for not being more useful to you.\nIf you turn Kraken back, come see me again.")
    PictureClear(5)
    ShowMessageFace("",0,0,2,52)
    ShowMessage("We've put finding the Queen Mermaid to help Kraken on hold, but acquiring the Silver Orb is a big accomplishment by itself.")
    0()
   Else()
    ShowMessageFace("poseidones_fc1",0,0,2,53)
    ShowMessage("\\n<Poseidoness>Hurry along now. I've got work to do...")
    PictureClear(5)
    0()
   EndIf()
   ShowMessageFace("ruka_fc1",0,0,2,54)
   ShowMessage("\\n<Luka>All right, back to the adventure!")
   RunCommonEvent(330)
   241(bytes(0x04,0x08,0x6f,0x3a,0x0d,0x52,0x50,0x47,0x3a,0x3a,0x42,0x47,0x4d,0x08,0x3a,0x0a,0x40,0x6e,0x61,0x6d,0x65,0x49,0x22,0x10,0x64,0x75,0x6e,0x67,0x65,0x6f,0x6e,0x5f,0x75,0x6d,0x69,0x06,0x3a,0x06,0x45,0x54,0x3a,0x0c,0x40,0x76,0x6f,0x6c,0x75,0x6d,0x65,0x69,0x69,0x3a,0x0b,0x40,0x70,0x69,0x74,0x63,0x68,0x69,0x69))
   EndEventProcessing()
   0()
  EndIf()
  If(1,1068,0,3,0)
   If(0,2251,1)
    PictureDisplay(5,"80_poseidones_st01",0,0,0,0,100,100,0,0)
    PictureMove(5,null,0,0,0,0,100,100,255,0,30,true)
    If(1,1016,0,3,1)
     ShowMessageFace("poseidones_fc1",0,0,2,55)
     ShowMessage("\\n<Poseidoness>I apologize for not being more useful to you. If you turn Kraken back, come see me again.")
     0()
    Else()
     ShowMessageFace("poseidones_fc1",0,0,2,56)
     ShowMessage("\\n<Poseidoness>Hurry along now. I've got work to do...")
     0()
    EndIf()
    PictureClear(5)
    EndEventProcessing()
    0()
   EndIf()
   If(0,2251,0)
    PictureDisplay(5,"80_poseidones_st01",0,0,0,0,100,100,0,0)
    PictureMove(5,null,0,0,0,0,100,100,255,0,30,true)
    ShowMessageFace("kraken_fc1",0,0,2,57)
    ShowMessage("\\n<Kraken>I'm no longer dried squid, Poseidoness.\nAs you can see, my body is back to normal.")
    ShowMessageFace("poseidones_fc1",1,0,2,58)
    ShowMessage("\\n<Poseidoness>That's a relief. I was worried about you.\nWe haven't held an ocean feast in quite a while, you know...")
    ShowMessageFace("kraken_fc1",1,0,2,59)
    ShowMessage("\\n<Kraken>How about we go find some delicious things to eat on land?")
    ShowMessageFace("poseidones_fc1",1,0,2,60)
    ShowMessage("\\n<Poseidoness>That works for me. Sign me up...")
    PictureClear(5)
    205(0,bytes(0x04,0x08,0x6f,0x3a,0x13,0x52,0x50,0x47,0x3a,0x3a,0x4d,0x6f,0x76,0x65,0x52,0x6f,0x75,0x74,0x65,0x09,0x3a,0x0c,0x40,0x72,0x65,0x70,0x65,0x61,0x74,0x46,0x3a,0x0f,0x40,0x73,0x6b,0x69,0x70,0x70,0x61,0x62,0x6c,0x65,0x46,0x3a,0x0a,0x40,0x77,0x61,0x69,0x74,0x54,0x3a,0x0a,0x40,0x6c,0x69,0x73,0x74,0x5b,0x09,0x6f,0x3a,0x15,0x52,0x50,0x47,0x3a,0x3a,0x4d,0x6f,0x76,0x65,0x43,0x6f,0x6d,0x6d,0x61,0x6e,0x64,0x07,0x3a,0x0a,0x40,0x63,0x6f,0x64,0x65,0x69,0x2a,0x3a,0x10,0x40,0x70,0x61,0x72,0x61,0x6d,0x65,0x74,0x65,0x72,0x73,0x5b,0x00,0x6f,0x3b,0x0a,0x07,0x3b,0x0b,0x69,0x0f,0x3b,0x0c,0x5b,0x00,0x6f,0x3b,0x0a,0x07,0x3b,0x0b,0x69,0x2c,0x3b,0x0c,0x5b,0x00,0x6f,0x3b,0x0a,0x07,0x3b,0x0b,0x69,0x00,0x3b,0x0c,0x5b,0x00))
    355("add_actor_ex(280)")
    ChangeSelfSwitch("A",0)
    249(bytes(0x04,0x08,0x6f,0x3a,0x0c,0x52,0x50,0x47,0x3a,0x3a,0x4d,0x45,0x08,0x3a,0x0a,0x40,0x6e,0x61,0x6d,0x65,0x49,0x22,0x0c,0x66,0x61,0x6e,0x66,0x61,0x6c,0x65,0x06,0x3a,0x06,0x45,0x54,0x3a,0x0b,0x40,0x70,0x69,0x74,0x63,0x68,0x69,0x69,0x3a,0x0c,0x40,0x76,0x6f,0x6c,0x75,0x6d,0x65,0x69,0x69))
    ShowMessageFace("",0,0,2,61)
    ShowMessage("Poseidoness has joined the party!")
    Wait(60)
    If(0,6,0)
     ShowMessageFace("sonia_fc3",2,0,2,62)
     ShowMessage("\\n<Sonya>Such a random reason for joining our party!")
     0()
    Else()
     ShowMessageFace("ruka_fc1",0,0,2,63)
     ShowMessage("\\n<Luka>That's a pretty random reason for joining our party...")
     0()
    EndIf()
    If(0,4,0)
     ShowMessageFace("alice_fc5",5,0,2,64)
     ShowMessage("\\n<Alice>All sea monsters are like this...")
     0()
    EndIf()
    If(0,5,0)
     ShowMessageFace("iriasu_fc4",2,0,2,65)
     ShowMessage("\\n<Ilias>All sea monsters are like this...")
     0()
    EndIf()
    ShowMessageFace("poseidones_fc1",0,0,2,66)
    ShowMessage("\\n<Poseidoness>I'd prefer to think of us as easy-going, like the oceans themselves.\nSo, where are we going to eat?")
    If(0,4,0)
     ShowMessageFace("alice_fc5",5,0,2,67)
     ShowMessage("\\n<Alice>Eat your own legs...")
     0()
    EndIf()
    If(0,5,0)
     ShowMessageFace("iriasu_fc4",2,0,2,68)
     ShowMessage("\\n<Ilias>Eat your own legs.")
     0()
    EndIf()
    EndEventProcessing()
    0()
   EndIf()
   0()
  EndIf()
  0()
 PAGE   2
  // condition: self-switch A is ON
  0()



EVENT   108
 PAGE   1
  ShowMessageFace("",0,0,2,1)
  ShowMessage("It's a recovery pot!")
  250(bytes(0x04,0x08,0x6f,0x3a,0x0c,0x52,0x50,0x47,0x3a,0x3a,0x53,0x45,0x08,0x3a,0x0a,0x40,0x6e,0x61,0x6d,0x65,0x49,0x22,0x0a,0x48,0x65,0x61,0x6c,0x37,0x06,0x3a,0x06,0x45,0x54,0x3a,0x0b,0x40,0x70,0x69,0x74,0x63,0x68,0x69,0x69,0x3a,0x0c,0x40,0x76,0x6f,0x6c,0x75,0x6d,0x65,0x69,0x55))
  224(bytes(0x04,0x08,0x75,0x3a,0x0a,0x43,0x6f,0x6c,0x6f,0x72,0x25,0x00,0x00,0x00,0x00,0x00,0xe0,0x6f,0x40,0x00,0x00,0x00,0x00,0x00,0xe0,0x6f,0x40,0x00,0x00,0x00,0x00,0x00,0xe0,0x6f,0x40,0x00,0x00,0x00,0x00,0x00,0xe0,0x6f,0x40),30,true)
  314(0,0)
  ShowMessageFace("",0,0,2,2)
  ShowMessage("The party's HP and MP have been fully restored!")
  0()



EVENT   109
 PAGE   1
  If(12,"unlock_level < 1")
   ShowMessageFace("",0,0,2,1)
   ShowMessage("The chest is locked.")
   EndEventProcessing()
   0()
  EndIf()
  250(bytes(0x04,0x08,0x6f,0x3a,0x0c,0x52,0x50,0x47,0x3a,0x3a,0x53,0x45,0x08,0x3a,0x0a,0x40,0x6e,0x61,0x6d,0x65,0x49,0x22,0x0a,0x43,0x68,0x65,0x73,0x74,0x06,0x3a,0x06,0x45,0x54,0x3a,0x0b,0x40,0x70,0x69,0x74,0x63,0x68,0x69,0x69,0x3a,0x0c,0x40,0x76,0x6f,0x6c,0x75,0x6d,0x65,0x69,0x55))
  205(0,bytes(0x04,0x08,0x6f,0x3a,0x13,0x52,0x50,0x47,0x3a,0x3a,0x4d,0x6f,0x76,0x65,0x52,0x6f,0x75,0x74,0x65,0x09,0x3a,0x0c,0x40,0x72,0x65,0x70,0x65,0x61,0x74,0x46,0x3a,0x0f,0x40,0x73,0x6b,0x69,0x70,0x70,0x61,0x62,0x6c,0x65,0x46,0x3a,0x0a,0x40,0x77,0x61,0x69,0x74,0x54,0x3a,0x0a,0x40,0x6c,0x69,0x73,0x74,0x5b,0x0b,0x6f,0x3a,0x15,0x52,0x50,0x47,0x3a,0x3a,0x4d,0x6f,0x76,0x65,0x43,0x6f,0x6d,0x6d,0x61,0x6e,0x64,0x07,0x3a,0x0a,0x40,0x63,0x6f,0x64,0x65,0x69,0x29,0x3a,0x10,0x40,0x70,0x61,0x72,0x61,0x6d,0x65,0x74,0x65,0x72,0x73,0x5b,0x00,0x6f,0x3b,0x0a,0x07,0x3b,0x0b,0x69,0x16,0x3b,0x0c,0x5b,0x00,0x6f,0x3b,0x0a,0x07,0x3b,0x0b,0x69,0x14,0x3b,0x0c,0x5b,0x06,0x69,0x08,0x6f,0x3b,0x0a,0x07,0x3b,0x0b,0x69,0x17,0x3b,0x0c,0x5b,0x00,0x6f,0x3b,0x0a,0x07,0x3b,0x0b,0x69,0x14,0x3b,0x0c,0x5b,0x06,0x69,0x08,0x6f,0x3b,0x0a,0x07,0x3b,0x0b,0x69,0x00,0x3b,0x0c,0x5b,0x00))
  ChangeSelfSwitch("A",0)
  ChangeInventoryWeapon(810,0,0,1)
  0()
 PAGE   2
  // condition: self-switch A is ON
  0()
