// EVENT 0093
Name "Skill: Play 531-540"

ChangeVariable(11,11,0,2,1,5)
If(1,100,0,531,0)
 If(1,11,0,1,0)
  ShowMessageFace("saniria_fc2",0,0,2,1)
  ShowMessage("\\n<King of San Ilia>Let's see, time for a little maintenance...\n...oops, the ammunition caught fire!!")
  355("interrupt_skill(3306)")
  EndEventProcessing()
  0()
 EndIf()
 If(1,11,0,2,0)
  ShowMessageFace("saniria_fc2",0,0,2,2)
  ShowMessage("\\n<King of San Ilia>Goddess, give us your protection...")
  355("interrupt_skill(3302)")
  EndEventProcessing()
  0()
 EndIf()
 If(1,11,0,3,0)
  ShowMessageFace("saniria_fc2",0,0,2,3)
  ShowMessage("\\n<King of San Ilia>Target confirmed!\nCommence battle action!")
  ShowMessageFace("",0,0,2,4)
  ShowMessage("King of San Ilia struck a pose!")
  ShowMessage("...but no one was looking.")
  EndEventProcessing()
  0()
 EndIf()
 If(1,11,0,4,0)
  ShowMessageFace("saniria_fc2",0,0,2,5)
  ShowMessage("\\n<King of San Ilia>Geez, where did that screw go?\nI don't understand why there are screws in the gap between parts.")
  ShowMessageFace("",0,0,2,6)
  ShowMessage("King of San Ilia is maintaining his body...")
  EndEventProcessing()
  0()
 EndIf()
 If(1,11,0,5,0)
  ShowMessageFace("saniria_fc2",0,0,2,7)
  ShowMessage("\\n<King of San Ilia>Repent!\nBefore the Goddess, everyone is but a screw!")
  ShowMessageFace("",0,0,2,8)
  ShowMessage("King of San Ilia is working on his catchphrase...")
  EndEventProcessing()
  0()
 EndIf()
 0()
EndIf()
If(1,100,0,533,0)
 If(1,11,0,1,0)
  ShowMessageFace("grandnoa_fc1",0,0,2,9)
  ShowMessage("\\n<Queen of Grand Noah>Ahh, medals are so beautiful.\nI could look at them for hours and never get tired.")
  ShowMessageFace("",0,0,2,10)
  ShowMessage("Queen of Grand Noah carefully polishes a medal with a small piece of cloth.")
  EndEventProcessing()
  0()
 EndIf()
 If(1,11,0,2,0)
  ShowMessageFace("grandnoa_fc1",0,0,2,11)
  ShowMessage("\\n<Queen of Grand Noah>Even a noble such as myself possesses some level of musical talent.")
  ShowMessageFace("",0,0,2,12)
  ShowMessage("Queen of Grand Noah played a violin...")
  ShowMessage("Not bad, but not everyone was listening.")
  EndEventProcessing()
  0()
 EndIf()
 If(1,11,0,3,0)
  ShowMessageFace("grandnoa_fc1",0,0,2,13)
  ShowMessage("\\n<Queen of Grand Noah>All my subjects! Grovel at my feet!")
  ShowMessageFace("",0,0,2,14)
  ShowMessage("Queen of Grand Noah is practicing her catch phrase...")
  EndEventProcessing()
  0()
 EndIf()
 If(1,11,0,4,0)
  ShowMessageFace("grandnoa_fc1",0,0,2,15)
  ShowMessage("\\n<Queen of Grand Noah>You there, obey my command...")
  355("interrupt_skill(3296)")
  EndEventProcessing()
  0()
 EndIf()
 If(1,11,0,5,0)
  ShowMessageFace("grandnoa_fc1",0,0,2,16)
  ShowMessage("\\n<Queen of Grand Noah>Excuse me, I must attend to a daily ritual...")
  ShowMessageFace("",0,0,2,17)
  ShowMessage("Queen of Grand Noah stuffs hair from the King of Grangold into a straw doll.")
  ShowMessage("She then nails it to a tree with a long spike!")
  EndEventProcessing()
  0()
 EndIf()
 0()
EndIf()
If(1,100,0,535,0)
 If(1,11,0,1,0)
  ShowMessageFace("grangold_fc2",0,0,2,18)
  ShowMessage("【グランゴルド王】")
  ShowMessage("なんとか、元の姿に……")
  ShowMessageFace("",0,0,2,19)
  ShowMessage("グランゴルド王は一人で愚痴を言っている……")
  EndEventProcessing()
  0()
 EndIf()
 If(1,11,0,2,0)
  ShowMessageFace("grangold_fc2",0,0,2,20)
  ShowMessage("【グランゴルド王】")
  ShowMessage("旅先でも、書類仕事があってね……")
  ShowMessageFace("",0,0,2,21)
  ShowMessage("グランゴルド王は書類を書いている……")
  EndEventProcessing()
  0()
 EndIf()
 If(1,11,0,3,0)
  ShowMessageFace("grangold_fc2",0,0,2,22)
  ShowMessage("【グランゴルド王】")
  ShowMessage("我は眠りに就く……")
  313(0,535,0,11)
  ShowMessageFace("",0,0,2,23)
  ShowMessage("グランゴルド王は居眠りしている……")
  EndEventProcessing()
  0()
 EndIf()
 If(1,11,0,4,0)
  ShowMessageFace("grangold_fc2",0,0,2,24)
  ShowMessage("【グランゴルド王】")
  ShowMessage("滅びよ……")
  355("interrupt_skill(2407)")
  EndEventProcessing()
  0()
 EndIf()
 If(1,11,0,5,0)
  ShowMessageFace("grangold_fc2",0,0,2,25)
  ShowMessage("【グランゴルド王】")
  ShowMessage("光あれ……")
  355("interrupt_skill(3302)")
  EndEventProcessing()
  0()
 EndIf()
 0()
EndIf()
If(1,100,0,536,0)
 If(1,11,0,1,0)
  ShowMessageFace("serene_fc1",3,0,2,26)
  ShowMessage("【セレーネ】")
  ShowMessage("みんな、頑張って……！")
  355("interrupt_skill(3300)")
  EndEventProcessing()
  0()
 EndIf()
 If(1,11,0,2,0)
  ShowMessageFace("serene_fc1",3,0,2,27)
  ShowMessage("【セレーネ】")
  ShowMessage("うふふっ……")
  355("interrupt_skill(3296)")
  EndEventProcessing()
  0()
 EndIf()
 If(1,11,0,3,0)
  ShowMessageFace("serene_fc1",3,0,2,28)
  ShowMessage("【セレーネ】")
  ShowMessage("これは火計よ……")
  355("interrupt_skill(3295)")
  EndEventProcessing()
  0()
 EndIf()
 If(1,11,0,4,0)
  ShowMessageFace("serene_fc1",3,0,2,29)
  ShowMessage("【セレーネ】")
  ShowMessage("はい、どうぞ。")
  ShowMessageFace("",0,0,2,30)
  ShowMessage("セレーネからの差し入れだ！")
  250(bytes(0x04,0x08,0x6f,0x3a,0x0c,0x52,0x50,0x47,0x3a,0x3a,0x53,0x45,0x08,0x3a,0x0a,0x40,0x6e,0x61,0x6d,0x65,0x49,0x22,0x0a,0x49,0x74,0x65,0x6d,0x31,0x06,0x3a,0x06,0x45,0x54,0x3a,0x0b,0x40,0x70,0x69,0x74,0x63,0x68,0x69,0x69,0x3a,0x0c,0x40,0x76,0x6f,0x6c,0x75,0x6d,0x65,0x69,0x55))
  ChangeInventory_Item(402,0,0,1)
  ShowMessageFace("",0,0,2,31)
  ShowMessage("「ホットドッグ」を手に入れた！")
  EndEventProcessing()
  0()
 EndIf()
 If(1,11,0,5,0)
  ShowMessageFace("serene_fc1",3,0,2,32)
  ShowMessage("【セレーネ】")
  ShowMessage("さあ、行くわよ！")
  355("interrupt_skill(3294)")
  EndEventProcessing()
  0()
 EndIf()
 0()
EndIf()
If(1,100,0,538,0)
 If(1,11,0,1,0)
  ShowMessageFace("heinrich_fc1",3,0,2,33)
  ShowMessage("【ハインリヒ】")
  ShowMessage("正義の剣に敵はない！")
  ShowMessageFace("",0,0,2,34)
  ShowMessage("ハインリヒは決め台詞の練習をしている……")
  EndEventProcessing()
  0()
 EndIf()
 If(1,11,0,2,0)
  ShowMessageFace("heinrich_fc1",0,0,2,35)
  ShowMessage("【ハインリヒ】")
  ShowMessage("秘剣・勇者の太刀！")
  355("interrupt_skill(3292)")
  EndEventProcessing()
  0()
 EndIf()
 If(1,11,0,3,0)
  ShowMessageFace("heinrich_fc1",0,0,2,36)
  ShowMessage("【ハインリヒ】")
  ShowMessage("これぞ、勇者の構え！")
  ShowMessageFace("",0,0,2,37)
  ShowMessage("ハインリヒは決めポーズを繰り出した！")
  ShowMessage("しかし誰も見ていない……")
  EndEventProcessing()
  0()
 EndIf()
 If(1,11,0,4,0)
  ShowMessageFace("heinrich_fc1",7,0,2,38)
  ShowMessage("【ハインリヒ】")
  ShowMessage("なんだか、やけに懐いてくるんだ……")
  ShowMessage("はい、君にあげるよ。")
  250(bytes(0x04,0x08,0x6f,0x3a,0x0c,0x52,0x50,0x47,0x3a,0x3a,0x53,0x45,0x08,0x3a,0x0a,0x40,0x6e,0x61,0x6d,0x65,0x49,0x22,0x0a,0x49,0x74,0x65,0x6d,0x31,0x06,0x3a,0x06,0x45,0x54,0x3a,0x0b,0x40,0x70,0x69,0x74,0x63,0x68,0x69,0x69,0x3a,0x0c,0x40,0x76,0x6f,0x6c,0x75,0x6d,0x65,0x69,0x55))
  ChangeInventory_Item(450,0,0,1)
  ShowMessageFace("",0,0,2,39)
  ShowMessage("「ちぃぱっぱ」を手に入れた！")
  EndEventProcessing()
  0()
 EndIf()
 If(1,11,0,5,0)
  ShowMessageFace("heinrich_fc1",7,0,2,40)
  ShowMessage("【ハインリヒ】")
  ShowMessage("イリアス様、どうかご加護を……")
  355("interrupt_skill(3302)")
  EndEventProcessing()
  0()
 EndIf()
 0()
EndIf()
If(1,100,0,540,0)
 If(1,11,0,1,0)
  ShowMessageFace("amira_fc1",0,0,2,41)
  ShowMessage("\\n<Amira>......")
  ShowMessageFace("",0,0,2,42)
  ShowMessage("Amira smiles!")
  ShowMessage("...but nothing happens.")
  EndEventProcessing()
  0()
 EndIf()
 If(1,11,0,2,0)
  ShowMessageFace("amira_fc1",0,0,2,43)
  ShowMessage("\\n<Amira>Amira's crotch opens at night!")
  ShowMessageFace("",0,0,2,44)
  ShowMessage("Amira slowly spreads her feet, making an M shape with her legs!")
  ShowMessage("...but nothing happened.")
  EndEventProcessing()
  0()
 EndIf()
 If(1,11,0,3,0)
  ShowMessageFace("amira_fc1",0,0,2,45)
  ShowMessage("\\n<Amira>Shine!")
  ShowMessageFace("",0,0,2,46)
  ShowMessage("Amira's eyes began to glow!")
  ShowMessage("...but nothing happened.")
  EndEventProcessing()
  0()
 EndIf()
 If(1,11,0,4,0)
  ShowMessageFace("amira_fc1",0,0,2,47)
  ShowMessage("\\n<Amira>But the hero Luka held his sword, filled with determination...")
  ShowMessageFace("",0,0,2,48)
  ShowMessage("...Amira is writing a manuscript.")
  EndEventProcessing()
  0()
 EndIf()
 If(1,11,0,5,0)
  ShowMessageFace("amira_fc1",0,0,2,49)
  ShowMessage("\\n<Amira>Ooo!　Aaaaaa!")
  ShowMessageFace("",0,0,2,50)
  ShowMessage("Amira is dancing and singing happily!")
  EndEventProcessing()
  0()
 EndIf()
 0()
EndIf()
0()
