// EVENT 7242
Name "Satsuki: Match"

ChangeSwitch(96,96,0)
ChangeSwitch(98,98,0)
ShowMessageFace("mob_miko1_fc1",0,0,2,1)
ShowMessage("\\n<Satsuki>Very well, I will be your opponent then.\nPlease take off your clothes...")
250(bytes(0x04,0x08,0x6f,0x3a,0x0c,0x52,0x50,0x47,0x3a,0x3a,0x53,0x45,0x08,0x3a,0x0a,0x40,0x6e,0x61,0x6d,0x65,0x49,0x22,0x12,0x6d,0x6f,0x6e,0x5f,0x65,0x72,0x6f,0x5f,0x6b,0x6f,0x6b,0x69,0x31,0x06,0x3a,0x06,0x45,0x54,0x3a,0x0b,0x40,0x70,0x69,0x74,0x63,0x68,0x69,0x69,0x3a,0x0c,0x40,0x76,0x6f,0x6c,0x75,0x6d,0x65,0x69,0x69))
PictureDisplay(5,"ev_mob_miko1_ha1",0,0,0,0,100,100,255,0)
ChangeVariable(11,11,0,2,135,145)
311(0,1,1,1,11,true)
ShowMessageFace("",0,0,2,2)
ShowMessage("Satsuki takes her breasts out and pushes them against Luka's groin!\nHis cock was caught in their soft and pleasant embrace!\\D")
ShowMessage("Luka takes \\V[11] damage!")
ChangeVariable(27,27,0,3,3,1,2)
If(1,27,0,0,0)
 RunCommonEvent(7245)
 EndEventProcessing()
 0()
EndIf()
ShowMessageFace("mob_miko1_fc1",0,0,2,3)
ShowMessage("\\n<Satsuki>I will also lick your nipples...")
250(bytes(0x04,0x08,0x6f,0x3a,0x0c,0x52,0x50,0x47,0x3a,0x3a,0x53,0x45,0x08,0x3a,0x0a,0x40,0x6e,0x61,0x6d,0x65,0x49,0x22,0x11,0x6d,0x6f,0x6e,0x5f,0x65,0x72,0x6f,0x5f,0x70,0x79,0x75,0x31,0x06,0x3a,0x06,0x45,0x54,0x3a,0x0b,0x40,0x70,0x69,0x74,0x63,0x68,0x69,0x69,0x3a,0x0c,0x40,0x76,0x6f,0x6c,0x75,0x6d,0x65,0x69,0x69))
PictureDisplay(5,"ev_mob_miko1_ha2",0,0,0,0,100,100,255,0)
ChangeVariable(11,11,0,2,135,145)
311(0,1,1,1,11,true)
ShowMessageFace("",0,0,2,4)
ShowMessage("Satsuki lays her tongue on Luka's nipples and starts caressing them.\nHer tender movements produce a sweet feeling...\\D")
ShowMessage("Luka takes \\V[11] damage!")
ChangeVariable(27,27,0,3,3,1,2)
If(1,27,0,0,0)
 RunCommonEvent(7245)
 EndEventProcessing()
 0()
EndIf()
ShowMessageFace("mob_miko1_fc1",0,0,2,5)
ShowMessage("\\n<Satsuki>Uhufu...\nWill you endure this pleasure I'm giving to both your cock and nipples at the same time...?")
250(bytes(0x04,0x08,0x6f,0x3a,0x0c,0x52,0x50,0x47,0x3a,0x3a,0x53,0x45,0x08,0x3a,0x0a,0x40,0x6e,0x61,0x6d,0x65,0x49,0x22,0x12,0x6d,0x6f,0x6e,0x5f,0x65,0x72,0x6f,0x5f,0x6b,0x6f,0x6b,0x69,0x31,0x06,0x3a,0x06,0x45,0x54,0x3a,0x0b,0x40,0x70,0x69,0x74,0x63,0x68,0x69,0x69,0x3a,0x0c,0x40,0x76,0x6f,0x6c,0x75,0x6d,0x65,0x69,0x69))
ChangeVariable(11,11,0,2,135,145)
311(0,1,1,1,11,true)
ShowMessageFace("",0,0,2,6)
ShowMessage("Satsuki continued to skillfully stimulate Luka's nipples with her tongue while, at the same time, pressing her breasts against his cock!\\D")
ShowMessage("Luka takes \\V[11] damage!")
ChangeVariable(27,27,0,3,3,1,2)
If(1,27,0,0,0)
 RunCommonEvent(7246)
 EndEventProcessing()
 0()
EndIf()
ShowMessageFace("mob_miko1_fc1",2,0,2,7)
ShowMessage("\\n<Satsuki>Uwa... It's pretty cute to taste your nipples like this...")
250(bytes(0x04,0x08,0x6f,0x3a,0x0c,0x52,0x50,0x47,0x3a,0x3a,0x53,0x45,0x08,0x3a,0x0a,0x40,0x6e,0x61,0x6d,0x65,0x49,0x22,0x11,0x6d,0x6f,0x6e,0x5f,0x65,0x72,0x6f,0x5f,0x70,0x79,0x75,0x31,0x06,0x3a,0x06,0x45,0x54,0x3a,0x0b,0x40,0x70,0x69,0x74,0x63,0x68,0x69,0x69,0x3a,0x0c,0x40,0x76,0x6f,0x6c,0x75,0x6d,0x65,0x69,0x69))
ChangeVariable(11,11,0,2,135,145)
311(0,1,1,1,11,true)
ShowMessageFace("",0,0,2,8)
ShowMessage("Satsuki moistened her tongue with saliva!\nHer sensitive touch felt sticky but pleasant on Luka's nipples...\\D")
ShowMessage("Luka takes \\V[11] damage!")
ChangeVariable(27,27,0,3,3,1,2)
250(bytes(0x04,0x08,0x6f,0x3a,0x0c,0x52,0x50,0x47,0x3a,0x3a,0x53,0x45,0x08,0x3a,0x0a,0x40,0x6e,0x61,0x6d,0x65,0x49,0x22,0x12,0x6d,0x6f,0x6e,0x5f,0x65,0x72,0x6f,0x5f,0x6b,0x6f,0x6b,0x69,0x31,0x06,0x3a,0x06,0x45,0x54,0x3a,0x0b,0x40,0x70,0x69,0x74,0x63,0x68,0x69,0x69,0x3a,0x0c,0x40,0x76,0x6f,0x6c,0x75,0x6d,0x65,0x69,0x69))
ChangeVariable(11,11,0,2,135,145)
311(0,1,1,1,11,true)
ShowMessageFace("",0,0,2,9)
ShowMessage("Satsuki then tightens her breasts stronger around his cock, increasing the pleasant embrace felt around it!\\D")
ShowMessage("Luka takes \\V[11] damage!")
ChangeVariable(27,27,0,3,3,1,2)
If(1,27,0,0,0)
 RunCommonEvent(7246)
 EndEventProcessing()
 0()
EndIf()
If(1,27,0,175,4)
 ShowMessageFace("ruka_fc1",0,0,2,10)
 ShowMessage("\\n<Luka>Ah, Unnngh...")
 ShowMessageFace("mob_miko1_fc1",5,0,2,11)
 ShowMessage("\\n<Satsuki>Uhufu, it's almost time...\nJust let go, it'll be more pleasant for you.")
 0()
Else()
 ShowMessageFace("mob_miko1_fc1",6,0,2,12)
 ShowMessage("\\n<Satsuki>I see that you're still holding...\nThen, I'll have to strengthen my embrace!♪")
 0()
EndIf()
250(bytes(0x04,0x08,0x6f,0x3a,0x0c,0x52,0x50,0x47,0x3a,0x3a,0x53,0x45,0x08,0x3a,0x0a,0x40,0x6e,0x61,0x6d,0x65,0x49,0x22,0x11,0x6d,0x6f,0x6e,0x5f,0x65,0x72,0x6f,0x5f,0x70,0x79,0x75,0x31,0x06,0x3a,0x06,0x45,0x54,0x3a,0x0b,0x40,0x70,0x69,0x74,0x63,0x68,0x69,0x69,0x3a,0x0c,0x40,0x76,0x6f,0x6c,0x75,0x6d,0x65,0x69,0x69))
ChangeVariable(11,11,0,2,135,145)
311(0,1,1,1,11,true)
ShowMessageFace("",0,0,2,13)
ShowMessage("Satsuki speeds up the movement of her tongue, but continued to carefully lick Luka's nipples!\\D")
ShowMessage("Luka takes \\V[11] damage!")
ChangeVariable(27,27,0,3,3,1,2)
250(bytes(0x04,0x08,0x6f,0x3a,0x0c,0x52,0x50,0x47,0x3a,0x3a,0x53,0x45,0x08,0x3a,0x0a,0x40,0x6e,0x61,0x6d,0x65,0x49,0x22,0x12,0x6d,0x6f,0x6e,0x5f,0x65,0x72,0x6f,0x5f,0x6b,0x6f,0x6b,0x69,0x31,0x06,0x3a,0x06,0x45,0x54,0x3a,0x0b,0x40,0x70,0x69,0x74,0x63,0x68,0x69,0x69,0x3a,0x0c,0x40,0x76,0x6f,0x6c,0x75,0x6d,0x65,0x69,0x69))
ChangeVariable(11,11,0,2,135,145)
311(0,1,1,1,11,true)
ShowMessageFace("",0,0,2,14)
ShowMessage("Swinging her breasts up and down, Luka's cock was caught by the pleasure their were giving!\\D")
ShowMessage("Luka takes \\V[11] damage!")
ChangeVariable(27,27,0,3,3,1,2)
If(1,27,0,0,0)
 RunCommonEvent(7246)
 EndEventProcessing()
 0()
EndIf()
ShowMessageFace("mob_miko1_fc1",6,0,2,15)
ShowMessage("\\n<Satsuki>I can do better...\nHum... can you endure this?")
250(bytes(0x04,0x08,0x6f,0x3a,0x0c,0x52,0x50,0x47,0x3a,0x3a,0x53,0x45,0x08,0x3a,0x0a,0x40,0x6e,0x61,0x6d,0x65,0x49,0x22,0x11,0x6d,0x6f,0x6e,0x5f,0x65,0x72,0x6f,0x5f,0x70,0x79,0x75,0x31,0x06,0x3a,0x06,0x45,0x54,0x3a,0x0b,0x40,0x70,0x69,0x74,0x63,0x68,0x69,0x69,0x3a,0x0c,0x40,0x76,0x6f,0x6c,0x75,0x6d,0x65,0x69,0x69))
ChangeVariable(11,11,0,2,135,145)
311(0,1,1,1,11,true)
ShowMessageFace("",0,0,2,16)
ShowMessage("Satsuki started moving her tongue vigorously while licking Luka's nipples!\\D")
ShowMessage("Luka takes \\V[11] damage!")
ChangeVariable(27,27,0,3,3,1,2)
250(bytes(0x04,0x08,0x6f,0x3a,0x0c,0x52,0x50,0x47,0x3a,0x3a,0x53,0x45,0x08,0x3a,0x0a,0x40,0x6e,0x61,0x6d,0x65,0x49,0x22,0x12,0x6d,0x6f,0x6e,0x5f,0x65,0x72,0x6f,0x5f,0x6b,0x6f,0x6b,0x69,0x31,0x06,0x3a,0x06,0x45,0x54,0x3a,0x0b,0x40,0x70,0x69,0x74,0x63,0x68,0x69,0x69,0x3a,0x0c,0x40,0x76,0x6f,0x6c,0x75,0x6d,0x65,0x69,0x69))
ChangeVariable(11,11,0,2,135,145)
311(0,1,1,1,11,true)
ShowMessageFace("",0,0,2,17)
ShowMessage("At the same time she moves her breasts rhythmically to the left and to the right, massaging Luka's cock between them!\\D")
ShowMessage("Luka takes \\V[11] damage!")
ChangeVariable(27,27,0,3,3,1,2)
If(1,27,0,0,0)
 RunCommonEvent(7246)
 EndEventProcessing()
 0()
EndIf()
ShowMessageFace("mob_miko1_fc1",5,0,2,18)
ShowMessage("\\n<Satsuki>This is it...\nNow please, go ahead...♪")
250(bytes(0x04,0x08,0x6f,0x3a,0x0c,0x52,0x50,0x47,0x3a,0x3a,0x53,0x45,0x08,0x3a,0x0a,0x40,0x6e,0x61,0x6d,0x65,0x49,0x22,0x12,0x6d,0x6f,0x6e,0x5f,0x65,0x72,0x6f,0x5f,0x6b,0x6f,0x6b,0x69,0x31,0x06,0x3a,0x06,0x45,0x54,0x3a,0x0b,0x40,0x70,0x69,0x74,0x63,0x68,0x69,0x69,0x3a,0x0c,0x40,0x76,0x6f,0x6c,0x75,0x6d,0x65,0x69,0x69))
ChangeVariable(11,11,0,2,135,145)
311(0,1,1,1,11,true)
ShowMessageFace("",0,0,2,19)
ShowMessage("Satsuki plays with Luka's nipples with her moistened tongue, giving them an immense ticklish stimulus!")
ShowMessage("Simultaneously, she crushes his cock between her breasts. The pleasure of it's soft embrace getting overwhelming!\\D")
ShowMessage("Luka takes \\V[11] damage!")
ChangeVariable(27,27,0,3,3,1,2)
If(1,27,0,0,0)
 RunCommonEvent(7246)
 EndEventProcessing()
 0()
EndIf()
RunCommonEvent(7244)
EndEventProcessing()
0()
