﻿// EVENT 0041
Name "Skill: Play 11-20"

ChangeVariable(11,11,0,2,1,5)
If(1,100,0,12,0)
 If(1,11,0,1,0)
  ShowMessageFace("sylph_fc1",7,0,2,1)
  ShowMessage("\\n<Sylph>Chi Pa Pa! Chi Pa Pa!\nThe flower on my head goes Chi Pa Pa!")
  ShowMessageFace("",0,0,2,2)
  ShowMessage("Sylph is singing...")
  EndEventProcessing()
  0()
 EndIf()
 If(1,11,0,2,0)
  ShowMessageFace("sylph_fc1",7,0,2,3)
  ShowMessage("\\n<Sylph>Chi Pa Pa! Chi Pa Pa!\nEveryone together now, Chi Pa Pa!")
  ShowMessageFace("",0,0,2,4)
  ShowMessage("Sylph calls companions.")
  ChangeInventory_Item(450,0,0,3)
  ShowMessageFace("",0,0,2,5)
  ShowMessage("You obtain 3 \\ii[450]!")
  EndEventProcessing()
  0()
 EndIf()
 If(1,11,0,3,0)
  ShowMessageFace("sylph_fc1",4,0,2,6)
  ShowMessage("\\n<Sylph>Achoo!")
  ShowMessageFace("",0,0,2,7)
  ShowMessage("Sylph sneezes...")
  355("interrupt_skill(3038)")
  EndEventProcessing()
  0()
 EndIf()
 If(1,11,0,4,0)
  ShowMessageFace("sylph_fc2",0,0,2,8)
  ShowMessage("\\n<Sylph>I'm going to go play with Mandy!")
  ShowMessageFace("",0,0,2,9)
  ShowMessage("Sylph left to go play.")
  ShowMessageFace("sylph_fc2",4,0,2,10)
  ShowMessage("\\n<Sylph>I'm back...")
  ShowMessageFace("",0,0,2,11)
  ShowMessage("She comes back looking crispy!")
  EndEventProcessing()
  0()
 EndIf()
 If(1,11,0,5,0)
  ShowMessageFace("sylph_fc2",2,0,2,12)
  ShowMessage("\\n<Sylph>Blub, blub, blub...")
  ShowMessageFace("",0,0,2,13)
  ShowMessage("Sylph is playing in the water.")
  EndEventProcessing()
  0()
 EndIf()
 0()
EndIf()
If(1,100,0,13,0)
 If(1,11,0,1,0)
  ShowMessageFace("gnome_fc1",1,0,2,14)
  ShowMessage("\\n<Gnome>...")
  313(0,13,0,11)
  ShowMessageFace("",0,0,2,15)
  ShowMessage("Gnome nods off to sleep!")
  EndEventProcessing()
  0()
 EndIf()
 If(1,11,0,2,0)
  ShowMessageFace("gnome_fc1",1,0,2,16)
  ShowMessage("\\n<Gnome>...")
  ShowMessageFace("",0,0,2,17)
  ShowMessage("Gnome keeps slapping at the air with her hand!")
  EndEventProcessing()
  0()
 EndIf()
 If(1,11,0,3,0)
  ShowMessageFace("gnome_fc1",1,0,2,18)
  ShowMessage("\\n<Gnome>...")
  ShowMessageFace("",0,0,2,19)
  ShowMessage("Gnome dances together with her mud dolls!")
  ShowMessage("But nothing happens.")
  EndEventProcessing()
  0()
 EndIf()
 If(1,11,0,4,0)
  ShowMessageFace("gnome_fc1",1,0,2,20)
  ShowMessage("\\n<Gnome>...")
  355("interrupt_skill(3297)")
  EndEventProcessing()
  0()
 EndIf()
 If(1,11,0,5,0)
  ShowMessageFace("gnome_fc1",1,0,2,21)
  ShowMessage("\\n<Gnome>...")
  355("interrupt_skill(3298)")
  EndEventProcessing()
  0()
 EndIf()
 0()
EndIf()
If(1,100,0,14,0)
 If(1,11,0,1,0)
  ShowMessageFace("undine_fc1",2,0,2,22)
  ShowMessage("【ウンディーネ】")
  ShowMessage("……………………")
  ShowMessageFace("",0,0,2,23)
  ShowMessage("ウンディーネは静かに瞑想している……")
  EndEventProcessing()
  0()
 EndIf()
 If(1,11,0,2,0)
  ShowMessageFace("undine_fc1",0,0,2,24)
  ShowMessage("【ウンディーネ】")
  ShowMessage("……………………")
  ShowMessageFace("",0,0,2,25)
  ShowMessage("ウンディーネは流し目を送った……")
  ShowMessage("しかし、睨んでいるようにしか見えない！")
  EndEventProcessing()
  0()
 EndIf()
 If(1,11,0,3,0)
  ShowMessageFace("undine_fc1",1,0,2,26)
  ShowMessage("【ウンディーネ】")
  ShowMessage("少し踊ろうかしら……♪")
  ShowMessageFace("",0,0,2,27)
  ShowMessage("ウンディーネは水の踊りを踊った！")
  ShowMessage("しかし、何も起きなかった……")
  EndEventProcessing()
  0()
 EndIf()
 If(1,11,0,4,0)
  ShowMessageFace("undine_fc1",0,0,2,28)
  ShowMessage("【ウンディーネ】")
  ShowMessage("私の魔力を凝縮すれば、魔石が出来るのよ……")
  ShowMessageFace("",0,0,2,29)
  ShowMessage("ウンディーネからの差し入れだ！")
  250(bytes(0x04,0x08,0x6f,0x3a,0x0c,0x52,0x50,0x47,0x3a,0x3a,0x53,0x45,0x08,0x3a,0x0a,0x40,0x6e,0x61,0x6d,0x65,0x49,0x22,0x0a,0x49,0x74,0x65,0x6d,0x31,0x06,0x3a,0x06,0x45,0x54,0x3a,0x0b,0x40,0x70,0x69,0x74,0x63,0x68,0x69,0x69,0x3a,0x0c,0x40,0x76,0x6f,0x6c,0x75,0x6d,0x65,0x69,0x55))
  ChangeInventory_Item(72,0,0,1)
  ShowMessageFace("",0,0,2,30)
  ShowMessage("「青水石」を手に入れた！")
  EndEventProcessing()
  0()
 EndIf()
 If(1,11,0,5,0)
  ShowMessageFace("undine_fc1",0,0,2,31)
  ShowMessage("【ウンディーネ】")
  ShowMessage("ちょっと増えるわね………")
  355("interrupt_skill(2670)")
  EndEventProcessing()
  0()
 EndIf()
 0()
EndIf()
If(1,100,0,15,0)
 If(1,11,0,1,0)
  ShowMessageFace("salamander_fc1",2,0,2,32)
  ShowMessage("【サラマンダー】")
  ShowMessage("最近の若者は、つくづく情けないな……")
  ShowMessageFace("",0,0,2,33)
  ShowMessage("サラマンダーは説教を始めた！")
  ShowMessage("しかし誰も聞いていない……")
  EndEventProcessing()
  0()
 EndIf()
 If(1,11,0,2,0)
  ShowMessageFace("salamander_fc1",0,0,2,34)
  ShowMessage("【サラマンダー】")
  ShowMessage("ぎらり……")
  ShowMessageFace("",0,0,2,35)
  ShowMessage("サラマンダーは流し目を送った……")
  ShowMessage("しかし、睨んでいるようにしか見えない！")
  EndEventProcessing()
  0()
 EndIf()
 If(1,11,0,3,0)
  ShowMessageFace("salamander_fc1",2,0,2,36)
  ShowMessage("【サラマンダー】")
  ShowMessage("ふぇ……へっくしょい！")
  355("interrupt_skill(3069)")
  EndEventProcessing()
  0()
 EndIf()
 If(1,11,0,4,0)
  ShowMessageFace("salamander_fc1",1,0,2,37)
  ShowMessage("【サラマンダー】")
  ShowMessage("よぉし、気合い一発！")
  355("interrupt_skill(3294)")
  EndEventProcessing()
  0()
 EndIf()
 If(1,11,0,5,0)
  ShowMessageFace("salamander_fc1",0,0,2,38)
  ShowMessage("【サラマンダー】")
  ShowMessage("せっかくだから、花火でもしないか？")
  ShowMessageFace("",0,0,2,39)
  ShowMessage("サラマンダーの火が花火に引火した！")
  355("interrupt_skill(3306)")
  EndEventProcessing()
  0()
 EndIf()
 0()
EndIf()
If(1,100,0,19,0)
 If(1,11,0,1,0)
  ShowMessageFace("arumaeruma_fc2",0,0,2,40)
  ShowMessage("【アルマエルマ】")
  ShowMessage("楽しく行きましょう……♪")
  ShowMessageFace("",0,0,2,41)
  ShowMessage("アルマエルマは陽気に歌って踊っている……")
  EndEventProcessing()
  0()
 EndIf()
 If(1,11,0,2,0)
  ShowMessageFace("arumaeruma_fc2",6,0,2,42)
  ShowMessage("【アルマエルマ】")
  ShowMessage("うふふっ……♪")
  355("interrupt_skill(3296)")
  EndEventProcessing()
  0()
 EndIf()
 If(1,11,0,3,0)
  ShowMessageFace("arumaeruma_fc2",5,0,2,43)
  ShowMessage("【アルマエルマ】")
  ShowMessage("はぁっ！")
  355("interrupt_skill(3294)")
  EndEventProcessing()
  0()
 EndIf()
 If(1,11,0,4,0)
  ShowMessageFace("arumaeruma_fc2",0,0,2,44)
  ShowMessage("【アルマエルマ】")
  ShowMessage("ハッスル♪　ハッスル♪")
  355("interrupt_skill(2047)")
  EndEventProcessing()
  0()
 EndIf()
 If(1,11,0,5,0)
  ShowMessageFace("arumaeruma_fc2",6,0,2,45)
  ShowMessage("【アルマエルマ】")
  ShowMessage("セクシータイフーン……♪")
  355("interrupt_skill(3150)")
  EndEventProcessing()
  0()
 EndIf()
 0()
EndIf()
0()
